h = .4;
Point(1) = {0,0,0,h};
Point(2) = {1,0,0,h};
Point(3) = {1,1,0,h};
Point(4) = {0,1,0,h};

Line(1) = {1,2};
Line(2) = {2,3};
Line(3) = {3,4};
Line(4) = {4,1};

Line Loop(5) = {1,2,3,4};
Plane Surface(6) = {5};

Transfinite Line {1} = 100;
Transfinite Line {2} = 400;
Transfinite Line {3} = 100;
Transfinite Line {4} = 400;
Transfinite Surface {6};

Physical Surface (100) = {6};
Physical Line(30000) = {1,2,3,4};
