
Point(1) = {1, 0, 0, 0.01};
Point(2) = {0.9997533, -3.498543e-05, 0, 0.01};
Point(3) = {0.9990134000000001, -0.0001398841, 0, 0.1003943};
Point(4) = {0.997781, -0.0003143904, 0, 0.1008856};
Point(5) = {0.9960575, -0.0005579769, 0, 0.1015708};
Point(6) = {0.9938442, -0.0008699747000000001, 0, 0.1024472};
Point(7) = {0.9911436, -0.001249551, 0, 0.1035112};
Point(8) = {0.9879584, -0.001695579, 0, 0.1047586};
Point(9) = {0.9842916, -0.00220686, 0, 0.1061847};
Point(10) = {0.9801469, -0.002781989, 0, 0.1077836};
Point(11) = {0.9755284, -0.003419365, 0, 0.1095491};
Point(12) = {0.9704404, -0.004117359, 0, 0.1114743};
Point(13) = {0.9648883, -0.004874101, 0, 0.1135515};
Point(14) = {0.9588774, -0.005687566, 0, 0.1157726};
Point(15) = {0.9524136, -0.006555737, 0, 0.1181288};
Point(16) = {0.9455034, -0.007476377, 0, 0.1206107};
Point(17) = {0.9381535, -0.00844721, 0, 0.1232086};
Point(18) = {0.9303712, -0.009465891000000001, 0, 0.1259123};
Point(19) = {0.9221641, -0.01052998, 0, 0.128711};
Point(20) = {0.9135405, -0.01163695, 0, 0.1315937};
Point(21) = {0.9045087000000001, -0.01278429, 0, 0.1345491};
Point(22) = {0.8950777, -0.01396934, 0, 0.1375654};
Point(23) = {0.8852569, -0.01518951, 0, 0.1406308};
Point(24) = {0.8750558000000001, -0.01644214, 0, 0.1437333};
Point(25) = {0.8644845, -0.01772453, 0, 0.1468604};
Point(26) = {0.8535537, -0.01903398, 0, 0.1499999};
Point(27) = {0.8422739, -0.02036772, 0, 0.1531394};
Point(28) = {0.8306563, -0.02172309, 0, 0.1562666};
Point(29) = {0.8187124, -0.02309725, 0, 0.159369};
Point(30) = {0.8064538999999999, -0.02448751, 0, 0.1624344};
Point(31) = {0.793893, -0.02589105, 0, 0.1654508};
Point(32) = {0.7810421, -0.02730503, 0, 0.1684061};
Point(33) = {0.7679139, -0.02872668, 0, 0.1712889};
Point(34) = {0.7545212, -0.03015313, 0, 0.1740876};
Point(35) = {0.7408773, -0.03158154, 0, 0.1767913};
Point(36) = {0.7269957, -0.03300894, 0, 0.1793892};
Point(37) = {0.7128901, -0.03443245, 0, 0.1818711};
Point(38) = {0.6985745, -0.03584905, 0, 0.1842273};
Point(39) = {0.6840628, -0.03725576, 0, 0.1864484};
Point(40) = {0.6693696, -0.03864942, 0, 0.1885256};
Point(41) = {0.6545091, -0.04002701, 0, 0.1904508};
Point(42) = {0.6394961, -0.04138529, 0, 0.1922163};
Point(43) = {0.6243455999999999, -0.04272101, 0, 0.1938153};
Point(44) = {0.6090723, -0.04403092, 0, 0.1952413};
Point(45) = {0.5936913, -0.04531165, 0, 0.1964888};
Point(46) = {0.5782179, -0.04655984, 0, 0.1975528};
Point(47) = {0.5626673, -0.04777199, 0, 0.1984291};
Point(48) = {0.5470549, -0.04894463, 0, 0.1991143};
Point(49) = {0.531396, -0.05007425, 0, 0.01};
Point(50) = {0.5157060999999999, -0.05115728, 0, 0.1999013};
Point(51) = {0.5000008, -0.05219014, 0, 0.2};
Point(52) = {0.4842954, -0.05316926, 0, 0.1999013};
Point(53) = {0.4686055, -0.05409108, 0, 0.1996058};
Point(54) = {0.4529467, -0.05495201, 0, 0.1991144};
Point(55) = {0.4373342, -0.05574857, 0, 0.1984292};
Point(56) = {0.4217836, -0.05647729, 0, 0.1975529};
Point(57) = {0.4063102, -0.05713477, 0, 0.1964889};
Point(58) = {0.3909292, -0.0577177, 0, 0.1952414};
Point(59) = {0.3756559, -0.05822293, 0, 0.1938154};
Point(60) = {0.3605053, -0.05864737, 0, 0.1922165};
Point(61) = {0.3454924, -0.05898812, 0, 0.190451};
Point(62) = {0.3306319, -0.05924247, 0, 0.1885258};
Point(63) = {0.3159386, -0.05940786, 0, 0.1864486};
Point(64) = {0.3014269, -0.05948193, 0, 0.1842275};
Point(65) = {0.2871112, -0.0594626, 0, 0.1818713};
Point(66) = {0.2730056, -0.059348, 0, 0.1793894};
Point(67) = {0.259124, -0.0591365, 0, 0.1767915};
Point(68) = {0.2454802, -0.05882679, 0, 0.1740879};
Point(69) = {0.2320875, -0.05841779, 0, 0.1712892};
Point(70) = {0.2189592, -0.05790876, 0, 0.1684064};
Point(71) = {0.2061082, -0.05729925, 0, 0.165451};
Point(72) = {0.1935473, -0.05658907, 0, 0.1624347};
Point(73) = {0.1812888, -0.05577839, 0, 0.1593693};
Point(74) = {0.1693449, -0.05486767, 0, 0.1562669};
Point(75) = {0.1577273, -0.05385765, 0, 0.1531398};
Point(76) = {0.1464474, -0.05274938, 0, 0.1500002};
Point(77) = {0.1355165, -0.0515442, 0, 0.1468607};
Point(78) = {0.1249452, -0.05024372, 0, 0.1437336};
Point(79) = {0.1147441, -0.04884978, 0, 0.1406312};
Point(80) = {0.1049232, -0.04736451, 0, 0.1375657};
Point(81) = {0.09549212, -0.04579021, 0, 0.1345494};
Point(82) = {0.08646031999999999, -0.04412942, 0, 0.131594};
Point(83) = {0.07783660000000001, -0.04238483, 0, 0.1287112};
Point(84) = {0.06962952, -0.04055926, 0, 0.1259125};
Point(85) = {0.06184718, -0.03865567, 0, 0.1232088};
Point(86) = {0.05449721, -0.03667711, 0, 0.1206109};
Point(87) = {0.04758692, -0.03462668, 0, 0.118129};
Point(88) = {0.04112309, -0.03250752, 0, 0.1157728};
Point(89) = {0.03511214, -0.03032277, 0, 0.1135517};
Point(90) = {0.02955997, -0.0280755, 0, 0.1114745};
Point(91) = {0.02447206, -0.02576878, 0, 0.1095493};
Point(92) = {0.01985344, -0.02340553, 0, 0.1077837};
Point(93) = {0.01570869, -0.02098859, 0, 0.1061848};
Point(94) = {0.01204184, -0.01852062, 0, 0.1047587};
Point(95) = {0.008856565, -0.01600414, 0, 0.1035113};
Point(96) = {0.006155997, -0.01344148, 0, 0.1024472};
Point(97) = {0.003942788, -0.01083471, 0, 0.1015709};
Point(98) = {0.002219111, -0.008185687000000001, 0, 0.1008857};
Point(99) = {0.0009866953, -0.00549606, 0, 0.1003943};
Point(100) = {0.0002467632, -0.002767267, 0, 0.01};
Point(101) = {1.911503e-39, 0, 0, 0.1};
Point(102) = {0.0002467632, 0.002767267, 0, 0.1000987};
Point(103) = {0.0009866953, 0.00549606, 0, 0.1003943};
Point(104) = {0.002219111, 0.008185687000000001, 0, 0.1008857};
Point(105) = {0.003942788, 0.01083471, 0, 0.1015709};
Point(106) = {0.006155997, 0.01344148, 0, 0.1024472};
Point(107) = {0.008856565, 0.01600414, 0, 0.1035113};
Point(108) = {0.01204184, 0.01852062, 0, 0.1047587};
Point(109) = {0.01570869, 0.02098859, 0, 0.1061848};
Point(110) = {0.01985344, 0.02340553, 0, 0.1077837};
Point(111) = {0.02447206, 0.02576878, 0, 0.1095493};
Point(112) = {0.02955997, 0.0280755, 0, 0.1114745};
Point(113) = {0.03511214, 0.03032277, 0, 0.1135517};
Point(114) = {0.04112309, 0.03250752, 0, 0.1157728};
Point(115) = {0.04758692, 0.03462668, 0, 0.118129};
Point(116) = {0.05449721, 0.03667711, 0, 0.1206109};
Point(117) = {0.06184718, 0.03865567, 0, 0.1232088};
Point(118) = {0.06962952, 0.04055926, 0, 0.1259125};
Point(119) = {0.07783660000000001, 0.04238483, 0, 0.1287112};
Point(120) = {0.08646031999999999, 0.04412942, 0, 0.131594};
Point(121) = {0.09549212, 0.04579021, 0, 0.1345494};
Point(122) = {0.1049232, 0.04736451, 0, 0.1375657};
Point(123) = {0.1147441, 0.04884978, 0, 0.1406312};
Point(124) = {0.1249452, 0.05024372, 0, 0.1437336};
Point(125) = {0.1355165, 0.0515442, 0, 0.1468607};
Point(126) = {0.1464474, 0.05274938, 0, 0.1500002};
Point(127) = {0.1577273, 0.05385765, 0, 0.1531398};
Point(128) = {0.1693449, 0.05486767, 0, 0.1562669};
Point(129) = {0.1812888, 0.05577839, 0, 0.1593693};
Point(130) = {0.1935473, 0.05658907, 0, 0.1624347};
Point(131) = {0.2061082, 0.05729925, 0, 0.165451};
Point(132) = {0.2189592, 0.05790876, 0, 0.1684064};
Point(133) = {0.2320875, 0.05841779, 0, 0.1712892};
Point(134) = {0.2454802, 0.05882679, 0, 0.1740879};
Point(135) = {0.259124, 0.0591365, 0, 0.1767915};
Point(136) = {0.2730056, 0.059348, 0, 0.1793894};
Point(137) = {0.2871112, 0.0594626, 0, 0.1818713};
Point(138) = {0.3014269, 0.05948193, 0, 0.1842275};
Point(139) = {0.3159386, 0.05940786, 0, 0.1864486};
Point(140) = {0.3306319, 0.05924247, 0, 0.1885258};
Point(141) = {0.3454924, 0.05898812, 0, 0.190451};
Point(142) = {0.3605053, 0.05864737, 0, 0.1922165};
Point(143) = {0.3756559, 0.05822293, 0, 0.1938154};
Point(144) = {0.3909292, 0.0577177, 0, 0.1952414};
Point(145) = {0.4063102, 0.05713477, 0, 0.1964889};
Point(146) = {0.4217836, 0.05647729, 0, 0.1975529};
Point(147) = {0.4373342, 0.05574857, 0, 0.1984292};
Point(148) = {0.4529467, 0.05495201, 0, 0.1991144};
Point(149) = {0.4686055, 0.05409108, 0, 0.1996058};
Point(150) = {0.4842954, 0.05316926, 0, 0.01};
Point(151) = {0.5000008, 0.05219014, 0, 0.2};
Point(152) = {0.5157060999999999, 0.05115728, 0, 0.1999013};
Point(153) = {0.531396, 0.05007425, 0, 0.1996057};
Point(154) = {0.5470549, 0.04894463, 0, 0.1991143};
Point(155) = {0.5626673, 0.04777199, 0, 0.1984291};
Point(156) = {0.5782179, 0.04655984, 0, 0.1975528};
Point(157) = {0.5936913, 0.04531165, 0, 0.1964888};
Point(158) = {0.6090723, 0.04403092, 0, 0.1952413};
Point(159) = {0.6243455999999999, 0.04272101, 0, 0.1938153};
Point(160) = {0.6394961, 0.04138529, 0, 0.1922163};
Point(161) = {0.6545091, 0.04002701, 0, 0.1904508};
Point(162) = {0.6693696, 0.03864942, 0, 0.1885256};
Point(163) = {0.6840628, 0.03725576, 0, 0.1864484};
Point(164) = {0.6985745, 0.03584905, 0, 0.1842273};
Point(165) = {0.7128901, 0.03443245, 0, 0.1818711};
Point(166) = {0.7269957, 0.03300894, 0, 0.1793892};
Point(167) = {0.7408773, 0.03158154, 0, 0.1767913};
Point(168) = {0.7545212, 0.03015313, 0, 0.1740876};
Point(169) = {0.7679139, 0.02872668, 0, 0.1712889};
Point(170) = {0.7810421, 0.02730503, 0, 0.1684061};
Point(171) = {0.793893, 0.02589105, 0, 0.1654508};
Point(172) = {0.8064538999999999, 0.02448751, 0, 0.1624344};
Point(173) = {0.8187124, 0.02309725, 0, 0.159369};
Point(174) = {0.8306563, 0.02172309, 0, 0.1562666};
Point(175) = {0.8422739, 0.02036772, 0, 0.1531394};
Point(176) = {0.8535537, 0.01903398, 0, 0.1499999};
Point(177) = {0.8644845, 0.01772453, 0, 0.1468604};
Point(178) = {0.8750558000000001, 0.01644214, 0, 0.1437333};
Point(179) = {0.8852569, 0.01518951, 0, 0.1406308};
Point(180) = {0.8950777, 0.01396934, 0, 0.1375654};
Point(181) = {0.9045087000000001, 0.01278429, 0, 0.1345491};
Point(182) = {0.9135405, 0.01163695, 0, 0.1315937};
Point(183) = {0.9221641, 0.01052998, 0, 0.128711};
Point(184) = {0.9303712, 0.009465891000000001, 0, 0.1259123};
Point(185) = {0.9381535, 0.00844721, 0, 0.1232086};
Point(186) = {0.9455034, 0.007476377, 0, 0.1206107};
Point(187) = {0.9524136, 0.006555737, 0, 0.1181288};
Point(188) = {0.9588774, 0.005687566, 0, 0.1157726};
Point(189) = {0.9648883, 0.004874101, 0, 0.1135515};
Point(190) = {0.9704404, 0.004117359, 0, 0.1114743};
Point(191) = {0.9755284, 0.003419365, 0, 0.1095491};
Point(192) = {0.9801469, 0.002781989, 0, 0.1077836};
Point(193) = {0.9842916, 0.00220686, 0, 0.1061847};
Point(194) = {0.9879584, 0.001695579, 0, 0.1047586};
Point(195) = {0.9911436, 0.001249551, 0, 0.1035112};
Point(196) = {0.9938442, 0.0008699747000000001, 0, 0.1024472};
Point(197) = {0.9960575, 0.0005579769, 0, 0.1015708};
Point(198) = {0.997781, 0.0003143904, 0, 0.1008856};
Point(199) = {0.9990134000000001, 0.0001398841, 0, 0.1003943};
Point(200) = {0.9997533, 3.498543e-05, 0, 0.01};
Point(1001) = {-10, 10, 0, 5};
Point(1002) = {10, 10, 0, 5};
Point(1003) = {10, -10, 0, 5};
Point(1004) = {-10, -10, 0, 5};
Point(1005) = {0.5000008, 0.05219014, 2, 0.2};
Point(1006) = {0.4842954, 0.05316926, 2, 0.01};
Point(1007) = {0.4686055, 0.05409108, 2, 0.1996058};
Point(1008) = {0.4529467, 0.05495201, 2, 0.1991144};
Point(1009) = {0.4373342, 0.05574857, 2, 0.1984292};
Point(1010) = {0.4217836, 0.05647729, 2, 0.1975529};
Point(1011) = {0.4063102, 0.05713477, 2, 0.1964889};
Point(1012) = {0.3909292, 0.0577177, 2, 0.1952414};
Point(1013) = {0.3756559, 0.05822293, 2, 0.1938154};
Point(1014) = {0.3605053, 0.05864737, 2, 0.1922165};
Point(1015) = {0.3454924, 0.05898812, 2, 0.190451};
Point(1016) = {0.3306319, 0.05924247, 2, 0.1885258};
Point(1017) = {0.3159386, 0.05940786, 2, 0.1864486};
Point(1018) = {0.3014269, 0.05948193, 2, 0.1842275};
Point(1019) = {0.2871112, 0.0594626, 2, 0.1818713};
Point(1020) = {0.2730056, 0.059348, 2, 0.1793894};
Point(1021) = {0.259124, 0.0591365, 2, 0.1767915};
Point(1022) = {0.2454802, 0.05882679, 2, 0.1740879};
Point(1023) = {0.2320875, 0.05841779, 2, 0.1712892};
Point(1024) = {0.2189592, 0.05790876, 2, 0.1684064};
Point(1025) = {0.2061082, 0.05729925, 2, 0.165451};
Point(1026) = {0.1935473, 0.05658907, 2, 0.1624347};
Point(1027) = {0.1812888, 0.05577839, 2, 0.1593693};
Point(1028) = {0.1693449, 0.05486767, 2, 0.1562669};
Point(1029) = {0.1577273, 0.05385765, 2, 0.1531398};
Point(1030) = {0.1464474, 0.05274938, 2, 0.1500002};
Point(1031) = {0.1355165, 0.0515442, 2, 0.1468607};
Point(1032) = {0.1249452, 0.05024372, 2, 0.1437336};
Point(1033) = {0.1147441, 0.04884978, 2, 0.1406312};
Point(1034) = {0.1049232, 0.04736451, 2, 0.1375657};
Point(1035) = {0.09549212, 0.04579021, 2, 0.1345494};
Point(1036) = {0.08646031999999999, 0.04412942, 2, 0.131594};
Point(1037) = {0.07783660000000001, 0.04238483, 2, 0.1287112};
Point(1038) = {0.06962952, 0.04055926, 2, 0.1259125};
Point(1039) = {0.06184718, 0.03865567, 2, 0.1232088};
Point(1040) = {0.05449721, 0.03667711, 2, 0.1206109};
Point(1041) = {0.04758692, 0.03462668, 2, 0.118129};
Point(1042) = {0.04112309, 0.03250752, 2, 0.1157728};
Point(1043) = {0.03511214, 0.03032277, 2, 0.1135517};
Point(1044) = {0.02955997, 0.0280755, 2, 0.1114745};
Point(1045) = {0.02447206, 0.02576878, 2, 0.1095493};
Point(1046) = {0.01985344, 0.02340553, 2, 0.1077837};
Point(1047) = {0.01570869, 0.02098859, 2, 0.1061848};
Point(1048) = {0.01204184, 0.01852062, 2, 0.1047587};
Point(1049) = {0.008856565, 0.01600414, 2, 0.1035113};
Point(1050) = {0.006155997, 0.01344148, 2, 0.1024472};
Point(1051) = {0.003942788, 0.01083471, 2, 0.1015709};
Point(1052) = {0.002219111, 0.008185687000000001, 2, 0.1008857};
Point(1053) = {0.0009866953, 0.00549606, 2, 0.1003943};
Point(1054) = {0.0002467632, 0.002767267, 2, 0.1000987};
Point(1055) = {1.911503e-39, 0, 2, 0.1};
Point(1059) = {0.0002467632, -0.002767267, 2, 0.01};
Point(1060) = {0.0009866953, -0.00549606, 2, 0.1003943};
Point(1061) = {0.002219111, -0.008185687000000001, 2, 0.1008857};
Point(1062) = {0.003942788, -0.01083471, 2, 0.1015709};
Point(1063) = {0.006155997, -0.01344148, 2, 0.1024472};
Point(1064) = {0.008856565, -0.01600414, 2, 0.1035113};
Point(1065) = {0.01204184, -0.01852062, 2, 0.1047587};
Point(1066) = {0.01570869, -0.02098859, 2, 0.1061848};
Point(1067) = {0.01985344, -0.02340553, 2, 0.1077837};
Point(1068) = {0.02447206, -0.02576878, 2, 0.1095493};
Point(1069) = {0.02955997, -0.0280755, 2, 0.1114745};
Point(1070) = {0.03511214, -0.03032277, 2, 0.1135517};
Point(1071) = {0.04112309, -0.03250752, 2, 0.1157728};
Point(1072) = {0.04758692, -0.03462668, 2, 0.118129};
Point(1073) = {0.05449721, -0.03667711, 2, 0.1206109};
Point(1074) = {0.06184718, -0.03865567, 2, 0.1232088};
Point(1075) = {0.06962952, -0.04055926, 2, 0.1259125};
Point(1076) = {0.07783660000000001, -0.04238483, 2, 0.1287112};
Point(1077) = {0.08646031999999999, -0.04412942, 2, 0.131594};
Point(1078) = {0.09549212, -0.04579021, 2, 0.1345494};
Point(1079) = {0.1049232, -0.04736451, 2, 0.1375657};
Point(1080) = {0.1147441, -0.04884978, 2, 0.1406312};
Point(1081) = {0.1249452, -0.05024372, 2, 0.1437336};
Point(1082) = {0.1355165, -0.0515442, 2, 0.1468607};
Point(1083) = {0.1464474, -0.05274938, 2, 0.1500002};
Point(1084) = {0.1577273, -0.05385765, 2, 0.1531398};
Point(1085) = {0.1693449, -0.05486767, 2, 0.1562669};
Point(1086) = {0.1812888, -0.05577839, 2, 0.1593693};
Point(1087) = {0.1935473, -0.05658907, 2, 0.1624347};
Point(1088) = {0.2061082, -0.05729925, 2, 0.165451};
Point(1089) = {0.2189592, -0.05790876, 2, 0.1684064};
Point(1090) = {0.2320875, -0.05841779, 2, 0.1712892};
Point(1091) = {0.2454802, -0.05882679, 2, 0.1740879};
Point(1092) = {0.259124, -0.0591365, 2, 0.1767915};
Point(1093) = {0.2730056, -0.059348, 2, 0.1793894};
Point(1094) = {0.2871112, -0.0594626, 2, 0.1818713};
Point(1095) = {0.3014269, -0.05948193, 2, 0.1842275};
Point(1096) = {0.3159386, -0.05940786, 2, 0.1864486};
Point(1097) = {0.3306319, -0.05924247, 2, 0.1885258};
Point(1098) = {0.3454924, -0.05898812, 2, 0.190451};
Point(1099) = {0.3605053, -0.05864737, 2, 0.1922165};
Point(1100) = {0.3756559, -0.05822293, 2, 0.1938154};
Point(1101) = {0.3909292, -0.0577177, 2, 0.1952414};
Point(1102) = {0.4063102, -0.05713477, 2, 0.1964889};
Point(1103) = {0.4217836, -0.05647729, 2, 0.1975529};
Point(1104) = {0.4373342, -0.05574857, 2, 0.1984292};
Point(1105) = {0.4529467, -0.05495201, 2, 0.1991144};
Point(1106) = {0.4686055, -0.05409108, 2, 0.1996058};
Point(1107) = {0.4842954, -0.05316926, 2, 0.1999013};
Point(1108) = {0.5000008, -0.05219014, 2, 0.2};
Point(1109) = {0.5157060999999999, -0.05115728, 2, 0.1999013};
Point(1113) = {0.531396, -0.05007425, 2, 0.01};
Point(1114) = {0.5470549, -0.04894463, 2, 0.1991143};
Point(1115) = {0.5626673, -0.04777199, 2, 0.1984291};
Point(1116) = {0.5782179, -0.04655984, 2, 0.1975528};
Point(1117) = {0.5936913, -0.04531165, 2, 0.1964888};
Point(1118) = {0.6090723, -0.04403092, 2, 0.1952413};
Point(1119) = {0.6243455999999999, -0.04272101, 2, 0.1938153};
Point(1120) = {0.6394961, -0.04138529, 2, 0.1922163};
Point(1121) = {0.6545091, -0.04002701, 2, 0.1904508};
Point(1122) = {0.6693696, -0.03864942, 2, 0.1885256};
Point(1123) = {0.6840628, -0.03725576, 2, 0.1864484};
Point(1124) = {0.6985745, -0.03584905, 2, 0.1842273};
Point(1125) = {0.7128901, -0.03443245, 2, 0.1818711};
Point(1126) = {0.7269957, -0.03300894, 2, 0.1793892};
Point(1127) = {0.7408773, -0.03158154, 2, 0.1767913};
Point(1128) = {0.7545212, -0.03015313, 2, 0.1740876};
Point(1129) = {0.7679139, -0.02872668, 2, 0.1712889};
Point(1130) = {0.7810421, -0.02730503, 2, 0.1684061};
Point(1131) = {0.793893, -0.02589105, 2, 0.1654508};
Point(1132) = {0.8064538999999999, -0.02448751, 2, 0.1624344};
Point(1133) = {0.8187124, -0.02309725, 2, 0.159369};
Point(1134) = {0.8306563, -0.02172309, 2, 0.1562666};
Point(1135) = {0.8422739, -0.02036772, 2, 0.1531394};
Point(1136) = {0.8535537, -0.01903398, 2, 0.1499999};
Point(1137) = {0.8644845, -0.01772453, 2, 0.1468604};
Point(1138) = {0.8750558000000001, -0.01644214, 2, 0.1437333};
Point(1139) = {0.8852569, -0.01518951, 2, 0.1406308};
Point(1140) = {0.8950777, -0.01396934, 2, 0.1375654};
Point(1141) = {0.9045087000000001, -0.01278429, 2, 0.1345491};
Point(1142) = {0.9135405, -0.01163695, 2, 0.1315937};
Point(1143) = {0.9221641, -0.01052998, 2, 0.128711};
Point(1144) = {0.9303712, -0.009465891000000001, 2, 0.1259123};
Point(1145) = {0.9381535, -0.00844721, 2, 0.1232086};
Point(1146) = {0.9455034, -0.007476377, 2, 0.1206107};
Point(1147) = {0.9524136, -0.006555737, 2, 0.1181288};
Point(1148) = {0.9588774, -0.005687566, 2, 0.1157726};
Point(1149) = {0.9648883, -0.004874101, 2, 0.1135515};
Point(1150) = {0.9704404, -0.004117359, 2, 0.1114743};
Point(1151) = {0.9755284, -0.003419365, 2, 0.1095491};
Point(1152) = {0.9801469, -0.002781989, 2, 0.1077836};
Point(1153) = {0.9842916, -0.00220686, 2, 0.1061847};
Point(1154) = {0.9879584, -0.001695579, 2, 0.1047586};
Point(1155) = {0.9911436, -0.001249551, 2, 0.1035112};
Point(1156) = {0.9938442, -0.0008699747000000001, 2, 0.1024472};
Point(1157) = {0.9960575, -0.0005579769, 2, 0.1015708};
Point(1158) = {0.997781, -0.0003143904, 2, 0.1008856};
Point(1159) = {0.9990134000000001, -0.0001398841, 2, 0.1003943};
Point(1160) = {0.9997533, -3.498543e-05, 2, 0.01};
Point(1161) = {1, 0, 2, 0.01};
Point(1165) = {0.9997533, 3.498543e-05, 2, 0.01};
Point(1166) = {0.9990134000000001, 0.0001398841, 2, 0.1003943};
Point(1167) = {0.997781, 0.0003143904, 2, 0.1008856};
Point(1168) = {0.9960575, 0.0005579769, 2, 0.1015708};
Point(1169) = {0.9938442, 0.0008699747000000001, 2, 0.1024472};
Point(1170) = {0.9911436, 0.001249551, 2, 0.1035112};
Point(1171) = {0.9879584, 0.001695579, 2, 0.1047586};
Point(1172) = {0.9842916, 0.00220686, 2, 0.1061847};
Point(1173) = {0.9801469, 0.002781989, 2, 0.1077836};
Point(1174) = {0.9755284, 0.003419365, 2, 0.1095491};
Point(1175) = {0.9704404, 0.004117359, 2, 0.1114743};
Point(1176) = {0.9648883, 0.004874101, 2, 0.1135515};
Point(1177) = {0.9588774, 0.005687566, 2, 0.1157726};
Point(1178) = {0.9524136, 0.006555737, 2, 0.1181288};
Point(1179) = {0.9455034, 0.007476377, 2, 0.1206107};
Point(1180) = {0.9381535, 0.00844721, 2, 0.1232086};
Point(1181) = {0.9303712, 0.009465891000000001, 2, 0.1259123};
Point(1182) = {0.9221641, 0.01052998, 2, 0.128711};
Point(1183) = {0.9135405, 0.01163695, 2, 0.1315937};
Point(1184) = {0.9045087000000001, 0.01278429, 2, 0.1345491};
Point(1185) = {0.8950777, 0.01396934, 2, 0.1375654};
Point(1186) = {0.8852569, 0.01518951, 2, 0.1406308};
Point(1187) = {0.8750558000000001, 0.01644214, 2, 0.1437333};
Point(1188) = {0.8644845, 0.01772453, 2, 0.1468604};
Point(1189) = {0.8535537, 0.01903398, 2, 0.1499999};
Point(1190) = {0.8422739, 0.02036772, 2, 0.1531394};
Point(1191) = {0.8306563, 0.02172309, 2, 0.1562666};
Point(1192) = {0.8187124, 0.02309725, 2, 0.159369};
Point(1193) = {0.8064538999999999, 0.02448751, 2, 0.1624344};
Point(1194) = {0.793893, 0.02589105, 2, 0.1654508};
Point(1195) = {0.7810421, 0.02730503, 2, 0.1684061};
Point(1196) = {0.7679139, 0.02872668, 2, 0.1712889};
Point(1197) = {0.7545212, 0.03015313, 2, 0.1740876};
Point(1198) = {0.7408773, 0.03158154, 2, 0.1767913};
Point(1199) = {0.7269957, 0.03300894, 2, 0.1793892};
Point(1200) = {0.7128901, 0.03443245, 2, 0.1818711};
Point(1201) = {0.6985745, 0.03584905, 2, 0.1842273};
Point(1202) = {0.6840628, 0.03725576, 2, 0.1864484};
Point(1203) = {0.6693696, 0.03864942, 2, 0.1885256};
Point(1204) = {0.6545091, 0.04002701, 2, 0.1904508};
Point(1205) = {0.6394961, 0.04138529, 2, 0.1922163};
Point(1206) = {0.6243455999999999, 0.04272101, 2, 0.1938153};
Point(1207) = {0.6090723, 0.04403092, 2, 0.1952413};
Point(1208) = {0.5936913, 0.04531165, 2, 0.1964888};
Point(1209) = {0.5782179, 0.04655984, 2, 0.1975528};
Point(1210) = {0.5626673, 0.04777199, 2, 0.1984291};
Point(1211) = {0.5470549, 0.04894463, 2, 0.1991143};
Point(1212) = {0.531396, 0.05007425, 2, 0.1996057};
Point(1213) = {0.5157060999999999, 0.05115728, 2, 0.1999013};
Point(1217) = {-10, -10, 2, 5};
Point(1218) = {10, -10, 2, 5};
Point(1222) = {10, 10, 2, 5};
Point(1226) = {-10, 10, 2, 5};


Spline(1) = {1:50};
Spline(2) = {50:101};
Spline(3) = {101:151};
Spline(4) = {151:200, 1};

Line(5) = {1002, 1003};
Line(6) = {1003, 1004};
Line(7) = {1004, 1001};
Line(8) = {1001, 1002};

Spline(10002) = {1005:1055};
Spline(10003) = {1055, 1059:1109};
Spline(10004) = {1109, 1113:1161};
Spline(10005) = {1161, 1165:1213, 1005};

Line(10006) = {1217, 1218};
Line(10007) = {1218, 1222};
Line(10008) = {1222, 1226};
Line(10009) = {1226, 1217};

Line(10011) = {151, 1005};
Line(10012) = {101, 1055};
Line(10016) = {50, 1109};
Line(10020) = {1, 1161};

Line(10027) = {1004, 1217};
Line(10028) = {1003, 1218};
Line(10032) = {1002, 1222};
Line(10036) = {1001, 1226};

Line Loop(12) = {-3, -2, -1, -4, -6, -5, -8, -7};
Plane Surface(12) = {12};
Line Loop(10013) = {-3, 10012, -10002, -10011};
Ruled Surface(10013) = {10013};
Line Loop(10017) = {-2, 10016, -10003, -10012};
Ruled Surface(10017) = {10017};
Line Loop(10021) = {-1, 10020, -10004, -10016};
Ruled Surface(10021) = {10021};
Line Loop(10025) = {-4, 10011, -10005, -10020};
Ruled Surface(10025) = {10025};
Line Loop(10029) = {-6, 10028, -10006, -10027};
Ruled Surface(10029) = {10029};
Line Loop(10033) = {-5, 10032, -10007, -10028};
Ruled Surface(10033) = {10033};
Line Loop(10037) = {-8, 10036, -10008, -10032};
Ruled Surface(10037) = {10037};
Line Loop(10041) = {-7, 10027, -10009, -10036};
Ruled Surface(10041) = {10041};
Line Loop(10042) = {10002, 10003, 10004, 10005, 10006, 10007, 10008, 10009};
Plane Surface(10042) = {10042};
Surface Loop(1) = {12, 10042, 10013, 10017, 10021, 10025, 10029, 10033, 10037, 10041};
Volume(1) = {1};
Physical Surface(10000) = {10013, 10017, 10021, 10025};
Physical Surface(30000) = {12, 10029, 10033, 10037, 10041, 10042};
Physical Volume(10043) = {1};
