xf = 3.5;
yf = 1;
h = xf/(400);
Point(1) = {0,0,0,h};
Point(2) = {xf,0,0,h};
Point(3) = {xf,yf,0,h};
Point(4) = {0,yf,0,h};

Line(1) = {1,2};
Line(2) = {2,3};
Line(3) = {3,4};
Line(4) = {4,1};

Line Loop(5) = {1,2,3,4};
Plane Surface(6) = {5};

Physical Surface (100) = {6};
Physical Line(10000) = {1};
Physical Line(30000) = {2,3,4};
